test/results/test_all_10_delay_master_single_core.log
MODULE=test.test_all \
TOPLEVEL=gpu \
VERILOG_SOURCES="src/pc.sv src/alu.sv src/cache_utils.svh src/dcr.sv src/arbiter_cache.sv src/utils.svh src/enums.svh src/warp_controller.sv src/core.sv src/decoder.sv src/dispatch.sv src/fetcher.sv src/lsu.sv src/registers.sv src/scheduler.sv src/gpu.sv"  \
SIM=verilator \
EXTRA_ARGS="--cc --exe --build --trace -Isrc -Wno-WIDTHEXPAND -Wno-ASCRANGE -Wno-WIDTHTRUNC -Wno-CASEINCOMPLETE -Wno-UNSIGNED  -Wno-MULTIDRIVEN --compiler gcc -O3 -CFLAGS "-O3"" \
make -f /usr/lib/python3.13/site-packages/cocotb/share/makefiles/Makefile.sim
make[1]: Entering directory '/mnt/newhome/tiny-gpu'
rm -f results.xml
"make" -f /usr/lib/python3.13/site-packages/cocotb/share/makefiles/Makefile.sim results.xml
make[2]: Entering directory '/mnt/newhome/tiny-gpu'
/usr/bin/verilator -cc --exe -Mdir sim_build -DCOCOTB_SIM=1 --top-module gpu --timescale 1ns/1ps --vpi --public-flat-rw --prefix Vtop -o Vtop -LDFLAGS "-Wl,-rpath,/usr/lib/python3.13/site-packages/cocotb/libs -L/usr/lib/python3.13/site-packages/cocotb/libs -lcocotbvpi_verilator" --cc --exe --build --trace -Isrc -Wno-WIDTHEXPAND -Wno-ASCRANGE -Wno-WIDTHTRUNC -Wno-CASEINCOMPLETE -Wno-UNSIGNED  -Wno-MULTIDRIVEN --compiler gcc -O3 -CFLAGS -O3 src/pc.sv src/alu.sv src/cache_utils.svh src/dcr.sv src/arbiter_cache.sv src/utils.svh src/enums.svh src/warp_controller.sv src/core.sv src/decoder.sv src/dispatch.sv src/fetcher.sv src/lsu.sv src/registers.sv src/scheduler.sv src/gpu.sv /usr/lib/python3.13/site-packages/cocotb/share/lib/verilator/verilator.cpp
make[3]: Entering directory '/mnt/newhome/tiny-gpu/sim_build'
g++  -I.  -MMD -I/usr/share/verilator/include -I/usr/share/verilator/include/vltstd -DVM_COVERAGE=0 -DVM_SC=0 -DVM_TIMING=0 -DVM_TRACE=1 -DVM_TRACE_FST=0 -DVM_TRACE_VCD=1 -faligned-new -fcf-protection=none -Wno-bool-operation -Wno-shadow -Wno-sign-compare -Wno-subobject-linkage -Wno-tautological-compare -Wno-uninitialized -Wno-unused-but-set-parameter -Wno-unused-but-set-variable -Wno-unused-parameter -Wno-unused-variable    -O3   -Os  -c -o verilator.o /usr/lib/python3.13/site-packages/cocotb/share/lib/verilator/verilator.cpp
g++ -Os  -I.  -MMD -I/usr/share/verilator/include -I/usr/share/verilator/include/vltstd -DVM_COVERAGE=0 -DVM_SC=0 -DVM_TIMING=0 -DVM_TRACE=1 -DVM_TRACE_FST=0 -DVM_TRACE_VCD=1 -faligned-new -fcf-protection=none -Wno-bool-operation -Wno-shadow -Wno-sign-compare -Wno-subobject-linkage -Wno-tautological-compare -Wno-uninitialized -Wno-unused-but-set-parameter -Wno-unused-but-set-variable -Wno-unused-parameter -Wno-unused-variable    -O3   -c -o verilated.o /usr/share/verilator/include/verilated.cpp
g++ -Os  -I.  -MMD -I/usr/share/verilator/include -I/usr/share/verilator/include/vltstd -DVM_COVERAGE=0 -DVM_SC=0 -DVM_TIMING=0 -DVM_TRACE=1 -DVM_TRACE_FST=0 -DVM_TRACE_VCD=1 -faligned-new -fcf-protection=none -Wno-bool-operation -Wno-shadow -Wno-sign-compare -Wno-subobject-linkage -Wno-tautological-compare -Wno-uninitialized -Wno-unused-but-set-parameter -Wno-unused-but-set-variable -Wno-unused-parameter -Wno-unused-variable    -O3   -c -o verilated_dpi.o /usr/share/verilator/include/verilated_dpi.cpp
g++ -Os  -I.  -MMD -I/usr/share/verilator/include -I/usr/share/verilator/include/vltstd -DVM_COVERAGE=0 -DVM_SC=0 -DVM_TIMING=0 -DVM_TRACE=1 -DVM_TRACE_FST=0 -DVM_TRACE_VCD=1 -faligned-new -fcf-protection=none -Wno-bool-operation -Wno-shadow -Wno-sign-compare -Wno-subobject-linkage -Wno-tautological-compare -Wno-uninitialized -Wno-unused-but-set-parameter -Wno-unused-but-set-variable -Wno-unused-parameter -Wno-unused-variable    -O3   -c -o verilated_vpi.o /usr/share/verilator/include/verilated_vpi.cpp
g++ -Os  -I.  -MMD -I/usr/share/verilator/include -I/usr/share/verilator/include/vltstd -DVM_COVERAGE=0 -DVM_SC=0 -DVM_TIMING=0 -DVM_TRACE=1 -DVM_TRACE_FST=0 -DVM_TRACE_VCD=1 -faligned-new -fcf-protection=none -Wno-bool-operation -Wno-shadow -Wno-sign-compare -Wno-subobject-linkage -Wno-tautological-compare -Wno-uninitialized -Wno-unused-but-set-parameter -Wno-unused-but-set-variable -Wno-unused-parameter -Wno-unused-variable    -O3   -c -o verilated_vcd_c.o /usr/share/verilator/include/verilated_vcd_c.cpp
g++ -Os  -I.  -MMD -I/usr/share/verilator/include -I/usr/share/verilator/include/vltstd -DVM_COVERAGE=0 -DVM_SC=0 -DVM_TIMING=0 -DVM_TRACE=1 -DVM_TRACE_FST=0 -DVM_TRACE_VCD=1 -faligned-new -fcf-protection=none -Wno-bool-operation -Wno-shadow -Wno-sign-compare -Wno-subobject-linkage -Wno-tautological-compare -Wno-uninitialized -Wno-unused-but-set-parameter -Wno-unused-but-set-variable -Wno-unused-parameter -Wno-unused-variable    -O3   -c -o verilated_threads.o /usr/share/verilator/include/verilated_threads.cpp
g++ -Os  -I.  -MMD -I/usr/share/verilator/include -I/usr/share/verilator/include/vltstd -DVM_COVERAGE=0 -DVM_SC=0 -DVM_TIMING=0 -DVM_TRACE=1 -DVM_TRACE_FST=0 -DVM_TRACE_VCD=1 -faligned-new -fcf-protection=none -Wno-bool-operation -Wno-shadow -Wno-sign-compare -Wno-subobject-linkage -Wno-tautological-compare -Wno-uninitialized -Wno-unused-but-set-parameter -Wno-unused-but-set-variable -Wno-unused-parameter -Wno-unused-variable    -O3   -x c++-header Vtop__pch.h -o Vtop__pch.h.fast.gch
g++ -Os  -I.  -MMD -I/usr/share/verilator/include -I/usr/share/verilator/include/vltstd -DVM_COVERAGE=0 -DVM_SC=0 -DVM_TIMING=0 -DVM_TRACE=1 -DVM_TRACE_FST=0 -DVM_TRACE_VCD=1 -faligned-new -fcf-protection=none -Wno-bool-operation -Wno-shadow -Wno-sign-compare -Wno-subobject-linkage -Wno-tautological-compare -Wno-uninitialized -Wno-unused-but-set-parameter -Wno-unused-but-set-variable -Wno-unused-parameter -Wno-unused-variable    -O3   -include Vtop__pch.h.fast -c -o Vtop.o Vtop.cpp
g++ -Os  -I.  -MMD -I/usr/share/verilator/include -I/usr/share/verilator/include/vltstd -DVM_COVERAGE=0 -DVM_SC=0 -DVM_TIMING=0 -DVM_TRACE=1 -DVM_TRACE_FST=0 -DVM_TRACE_VCD=1 -faligned-new -fcf-protection=none -Wno-bool-operation -Wno-shadow -Wno-sign-compare -Wno-subobject-linkage -Wno-tautological-compare -Wno-uninitialized -Wno-unused-but-set-parameter -Wno-unused-but-set-variable -Wno-unused-parameter -Wno-unused-variable    -O3   -include Vtop__pch.h.fast -c -o Vtop___024root__DepSet_h84412442__0.o Vtop___024root__DepSet_h84412442__0.cpp
g++ -Os  -I.  -MMD -I/usr/share/verilator/include -I/usr/share/verilator/include/vltstd -DVM_COVERAGE=0 -DVM_SC=0 -DVM_TIMING=0 -DVM_TRACE=1 -DVM_TRACE_FST=0 -DVM_TRACE_VCD=1 -faligned-new -fcf-protection=none -Wno-bool-operation -Wno-shadow -Wno-sign-compare -Wno-subobject-linkage -Wno-tautological-compare -Wno-uninitialized -Wno-unused-but-set-parameter -Wno-unused-but-set-variable -Wno-unused-parameter -Wno-unused-variable    -O3   -include Vtop__pch.h.fast -c -o Vtop___024root__DepSet_heccd7ead__0.o Vtop___024root__DepSet_heccd7ead__0.cpp
g++ -Os  -I.  -MMD -I/usr/share/verilator/include -I/usr/share/verilator/include/vltstd -DVM_COVERAGE=0 -DVM_SC=0 -DVM_TIMING=0 -DVM_TRACE=1 -DVM_TRACE_FST=0 -DVM_TRACE_VCD=1 -faligned-new -fcf-protection=none -Wno-bool-operation -Wno-shadow -Wno-sign-compare -Wno-subobject-linkage -Wno-tautological-compare -Wno-uninitialized -Wno-unused-but-set-parameter -Wno-unused-but-set-variable -Wno-unused-parameter -Wno-unused-variable    -O3   -include Vtop__pch.h.fast -c -o Vtop___024root__DepSet_heccd7ead__1.o Vtop___024root__DepSet_heccd7ead__1.cpp
g++ -Os  -I.  -MMD -I/usr/share/verilator/include -I/usr/share/verilator/include/vltstd -DVM_COVERAGE=0 -DVM_SC=0 -DVM_TIMING=0 -DVM_TRACE=1 -DVM_TRACE_FST=0 -DVM_TRACE_VCD=1 -faligned-new -fcf-protection=none -Wno-bool-operation -Wno-shadow -Wno-sign-compare -Wno-subobject-linkage -Wno-tautological-compare -Wno-uninitialized -Wno-unused-but-set-parameter -Wno-unused-but-set-variable -Wno-unused-parameter -Wno-unused-variable    -O3   -include Vtop__pch.h.fast -c -o Vtop_MemChannelIF__A8_D10__DepSet_h0a6afb43__0.o Vtop_MemChannelIF__A8_D10__DepSet_h0a6afb43__0.cpp
g++ -Os  -I.  -MMD -I/usr/share/verilator/include -I/usr/share/verilator/include/vltstd -DVM_COVERAGE=0 -DVM_SC=0 -DVM_TIMING=0 -DVM_TRACE=1 -DVM_TRACE_FST=0 -DVM_TRACE_VCD=1 -faligned-new -fcf-protection=none -Wno-bool-operation -Wno-shadow -Wno-sign-compare -Wno-subobject-linkage -Wno-tautological-compare -Wno-uninitialized -Wno-unused-but-set-parameter -Wno-unused-but-set-variable -Wno-unused-parameter -Wno-unused-variable    -O3   -include Vtop__pch.h.fast -c -o Vtop__Dpi.o Vtop__Dpi.cpp
g++ -Os  -I.  -MMD -I/usr/share/verilator/include -I/usr/share/verilator/include/vltstd -DVM_COVERAGE=0 -DVM_SC=0 -DVM_TIMING=0 -DVM_TRACE=1 -DVM_TRACE_FST=0 -DVM_TRACE_VCD=1 -faligned-new -fcf-protection=none -Wno-bool-operation -Wno-shadow -Wno-sign-compare -Wno-subobject-linkage -Wno-tautological-compare -Wno-uninitialized -Wno-unused-but-set-parameter -Wno-unused-but-set-variable -Wno-unused-parameter -Wno-unused-variable    -O3   -include Vtop__pch.h.fast -c -o Vtop__Trace__0.o Vtop__Trace__0.cpp
g++   -I.  -MMD -I/usr/share/verilator/include -I/usr/share/verilator/include/vltstd -DVM_COVERAGE=0 -DVM_SC=0 -DVM_TIMING=0 -DVM_TRACE=1 -DVM_TRACE_FST=0 -DVM_TRACE_VCD=1 -faligned-new -fcf-protection=none -Wno-bool-operation -Wno-shadow -Wno-sign-compare -Wno-subobject-linkage -Wno-tautological-compare -Wno-uninitialized -Wno-unused-but-set-parameter -Wno-unused-but-set-variable -Wno-unused-parameter -Wno-unused-variable    -O3   -x c++-header Vtop__pch.h -o Vtop__pch.h.slow.gch
g++   -I.  -MMD -I/usr/share/verilator/include -I/usr/share/verilator/include/vltstd -DVM_COVERAGE=0 -DVM_SC=0 -DVM_TIMING=0 -DVM_TRACE=1 -DVM_TRACE_FST=0 -DVM_TRACE_VCD=1 -faligned-new -fcf-protection=none -Wno-bool-operation -Wno-shadow -Wno-sign-compare -Wno-subobject-linkage -Wno-tautological-compare -Wno-uninitialized -Wno-unused-but-set-parameter -Wno-unused-but-set-variable -Wno-unused-parameter -Wno-unused-variable    -O3   -include Vtop__pch.h.slow -c -o Vtop___024root__Slow.o Vtop___024root__Slow.cpp
g++   -I.  -MMD -I/usr/share/verilator/include -I/usr/share/verilator/include/vltstd -DVM_COVERAGE=0 -DVM_SC=0 -DVM_TIMING=0 -DVM_TRACE=1 -DVM_TRACE_FST=0 -DVM_TRACE_VCD=1 -faligned-new -fcf-protection=none -Wno-bool-operation -Wno-shadow -Wno-sign-compare -Wno-subobject-linkage -Wno-tautological-compare -Wno-uninitialized -Wno-unused-but-set-parameter -Wno-unused-but-set-variable -Wno-unused-parameter -Wno-unused-variable    -O3   -include Vtop__pch.h.slow -c -o Vtop___024root__DepSet_h84412442__0__Slow.o Vtop___024root__DepSet_h84412442__0__Slow.cpp
g++   -I.  -MMD -I/usr/share/verilator/include -I/usr/share/verilator/include/vltstd -DVM_COVERAGE=0 -DVM_SC=0 -DVM_TIMING=0 -DVM_TRACE=1 -DVM_TRACE_FST=0 -DVM_TRACE_VCD=1 -faligned-new -fcf-protection=none -Wno-bool-operation -Wno-shadow -Wno-sign-compare -Wno-subobject-linkage -Wno-tautological-compare -Wno-uninitialized -Wno-unused-but-set-parameter -Wno-unused-but-set-variable -Wno-unused-parameter -Wno-unused-variable    -O3   -include Vtop__pch.h.slow -c -o Vtop___024root__DepSet_heccd7ead__0__Slow.o Vtop___024root__DepSet_heccd7ead__0__Slow.cpp
g++   -I.  -MMD -I/usr/share/verilator/include -I/usr/share/verilator/include/vltstd -DVM_COVERAGE=0 -DVM_SC=0 -DVM_TIMING=0 -DVM_TRACE=1 -DVM_TRACE_FST=0 -DVM_TRACE_VCD=1 -faligned-new -fcf-protection=none -Wno-bool-operation -Wno-shadow -Wno-sign-compare -Wno-subobject-linkage -Wno-tautological-compare -Wno-uninitialized -Wno-unused-but-set-parameter -Wno-unused-but-set-variable -Wno-unused-parameter -Wno-unused-variable    -O3   -include Vtop__pch.h.slow -c -o Vtop___024unit__Slow.o Vtop___024unit__Slow.cpp
g++   -I.  -MMD -I/usr/share/verilator/include -I/usr/share/verilator/include/vltstd -DVM_COVERAGE=0 -DVM_SC=0 -DVM_TIMING=0 -DVM_TRACE=1 -DVM_TRACE_FST=0 -DVM_TRACE_VCD=1 -faligned-new -fcf-protection=none -Wno-bool-operation -Wno-shadow -Wno-sign-compare -Wno-subobject-linkage -Wno-tautological-compare -Wno-uninitialized -Wno-unused-but-set-parameter -Wno-unused-but-set-variable -Wno-unused-parameter -Wno-unused-variable    -O3   -include Vtop__pch.h.slow -c -o Vtop___024unit__DepSet_hff17caec__0__Slow.o Vtop___024unit__DepSet_hff17caec__0__Slow.cpp
g++   -I.  -MMD -I/usr/share/verilator/include -I/usr/share/verilator/include/vltstd -DVM_COVERAGE=0 -DVM_SC=0 -DVM_TIMING=0 -DVM_TRACE=1 -DVM_TRACE_FST=0 -DVM_TRACE_VCD=1 -faligned-new -fcf-protection=none -Wno-bool-operation -Wno-shadow -Wno-sign-compare -Wno-subobject-linkage -Wno-tautological-compare -Wno-uninitialized -Wno-unused-but-set-parameter -Wno-unused-but-set-variable -Wno-unused-parameter -Wno-unused-variable    -O3   -include Vtop__pch.h.slow -c -o Vtop_MemChannelIF__A8_D10__Slow.o Vtop_MemChannelIF__A8_D10__Slow.cpp
g++   -I.  -MMD -I/usr/share/verilator/include -I/usr/share/verilator/include/vltstd -DVM_COVERAGE=0 -DVM_SC=0 -DVM_TIMING=0 -DVM_TRACE=1 -DVM_TRACE_FST=0 -DVM_TRACE_VCD=1 -faligned-new -fcf-protection=none -Wno-bool-operation -Wno-shadow -Wno-sign-compare -Wno-subobject-linkage -Wno-tautological-compare -Wno-uninitialized -Wno-unused-but-set-parameter -Wno-unused-but-set-variable -Wno-unused-parameter -Wno-unused-variable    -O3   -include Vtop__pch.h.slow -c -o Vtop_MemChannelIF__A8_D10__DepSet_h0a6afb43__0__Slow.o Vtop_MemChannelIF__A8_D10__DepSet_h0a6afb43__0__Slow.cpp
g++   -I.  -MMD -I/usr/share/verilator/include -I/usr/share/verilator/include/vltstd -DVM_COVERAGE=0 -DVM_SC=0 -DVM_TIMING=0 -DVM_TRACE=1 -DVM_TRACE_FST=0 -DVM_TRACE_VCD=1 -faligned-new -fcf-protection=none -Wno-bool-operation -Wno-shadow -Wno-sign-compare -Wno-subobject-linkage -Wno-tautological-compare -Wno-uninitialized -Wno-unused-but-set-parameter -Wno-unused-but-set-variable -Wno-unused-parameter -Wno-unused-variable    -O3   -include Vtop__pch.h.slow -c -o Vtop__Syms.o Vtop__Syms.cpp
g++   -I.  -MMD -I/usr/share/verilator/include -I/usr/share/verilator/include/vltstd -DVM_COVERAGE=0 -DVM_SC=0 -DVM_TIMING=0 -DVM_TRACE=1 -DVM_TRACE_FST=0 -DVM_TRACE_VCD=1 -faligned-new -fcf-protection=none -Wno-bool-operation -Wno-shadow -Wno-sign-compare -Wno-subobject-linkage -Wno-tautological-compare -Wno-uninitialized -Wno-unused-but-set-parameter -Wno-unused-but-set-variable -Wno-unused-parameter -Wno-unused-variable    -O3   -include Vtop__pch.h.slow -c -o Vtop__Trace__0__Slow.o Vtop__Trace__0__Slow.cpp
g++   -I.  -MMD -I/usr/share/verilator/include -I/usr/share/verilator/include/vltstd -DVM_COVERAGE=0 -DVM_SC=0 -DVM_TIMING=0 -DVM_TRACE=1 -DVM_TRACE_FST=0 -DVM_TRACE_VCD=1 -faligned-new -fcf-protection=none -Wno-bool-operation -Wno-shadow -Wno-sign-compare -Wno-subobject-linkage -Wno-tautological-compare -Wno-uninitialized -Wno-unused-but-set-parameter -Wno-unused-but-set-variable -Wno-unused-parameter -Wno-unused-variable    -O3   -include Vtop__pch.h.slow -c -o Vtop__TraceDecls__0__Slow.o Vtop__TraceDecls__0__Slow.cpp
echo "" > Vtop__ALL.verilator_deplist.tmp
g++    verilator.o verilated.o verilated_dpi.o verilated_vpi.o verilated_vcd_c.o verilated_threads.o Vtop__ALL.a   -Wl,-rpath,/usr/lib/python3.13/site-packages/cocotb/libs -L/usr/lib/python3.13/site-packages/cocotb/libs -lcocotbvpi_verilator  -pthread -lpthread -latomic   -o Vtop
rm Vtop__ALL.verilator_deplist.tmp
make[3]: Leaving directory '/mnt/newhome/tiny-gpu/sim_build'
- V e r i l a t i o n   R e p o r t: Verilator 5.034 2025-02-24 rev v5.034
- Verilator: Built from 0.800 MB sources in 16 modules, into 1.875 MB in 17 C++ files needing 0.001 MB
- Verilator: Walltime 28.924 s (elab=0.016, cvt=0.108, bld=28.764); cpu 0.155 s on 1 threads; alloced 20.660 MB
make -C sim_build  -f Vtop.mk
make[3]: Entering directory '/mnt/newhome/tiny-gpu/sim_build'
make[3]: Nothing to be done for 'default'.
make[3]: Leaving directory '/mnt/newhome/tiny-gpu/sim_build'
rm -f results.xml
MODULE=test.test_all TESTCASE= TOPLEVEL=gpu TOPLEVEL_LANG=verilog \
         sim_build/Vtop  --cc --exe --build --trace -Isrc -Wno-WIDTHEXPAND -Wno-ASCRANGE -Wno-WIDTHTRUNC -Wno-CASEINCOMPLETE -Wno-UNSIGNED  -Wno-MULTIDRIVEN --compiler gcc -O3 -CFLAGS -O3  
     -.--ns INFO     gpi                                ..mbed/gpi_embed.cpp:79   in set_program_name_in_venv        Did not detect Python virtual environment. Using system-wide Python interpreter
     -.--ns INFO     gpi                                ../gpi/GpiCommon.cpp:101  in gpi_print_registered_impl       VPI registered
     0.00ns INFO     cocotb                             Running on Verilator version 5.034 2025-02-24
     0.00ns INFO     cocotb                             Running tests with cocotb v1.9.2 from /usr/lib/python3.13/site-packages/cocotb
     0.00ns INFO     cocotb                             Seeding Python random module with 1748495981
pygame 2.6.1 (SDL 2.32.56, Python 3.13.3)
Hello from the pygame community. https://www.pygame.org/contribute.html
     0.00ns INFO     cocotb.regression                  Found test test.test_negatives.test_negatives
     0.00ns INFO     cocotb.regression                  Found test test.test_matadd.test_matadd_8_threads
     0.00ns INFO     cocotb.regression                  Found test test.test_matadd.test_matadd_32_threads
     0.00ns INFO     cocotb.regression                  Found test test.test_matmul.test_matmul_2x2
     0.00ns INFO     cocotb.regression                  Found test test.test_matmul.test_matmul_4x4
     0.00ns INFO     cocotb.regression                  Found test test.test_load.test_load
     0.00ns INFO     cocotb.regression                  Found test test.test_alldmem.test_alldmem_basic
     0.00ns INFO     cocotb.regression                  Found test test.test_alldmem.test_alldmem_unrolled
     0.00ns INFO     cocotb.regression                  Found test test.test_alldmem.test_alldmem_64
     0.00ns INFO     cocotb.regression                  Found test test.test_alldmem.test_alldmem_hash
     0.00ns INFO     cocotb.regression                  running test_negatives (1/10)
using json initial data
PROGRAM IS
36869
37123
37376
16673
32801
61440
DATA IS
0
0
0
0
Running test: test_negatives
threads is 4
finished at cycle 211
5700000.00ns INFO     cocotb.regression                  test_negatives passed
5700000.00ns INFO     cocotb.regression                  running test_matadd_8_threads (2/10)
using json initial data
PROGRAM IS
20702
12303
37120
37384
37648
13328
29760
13600
30032
13893
14128
32886
61440
DATA IS
41
42
43
44
45
46
47
48
51
52
53
54
55
56
57
58
Running test: test_matadd_8_threads
threads is 8
finished at cycle 806
26300000.00ns INFO     cocotb.regression                  test_matadd_8_threads passed
26300000.00ns INFO     cocotb.regression                  running test_matadd_32_threads (3/10)
using json initial data
PROGRAM IS
0
20702
12303
37120
37408
37696
13328
29760
13600
30032
13893
14128
32886
61440
DATA IS
1
2
3
4
5
6
7
8
9
10
11
12
13
14
15
16
17
18
19
20
21
22
23
24
25
26
27
28
29
30
31
32
33
34
35
36
37
38
39
40
41
42
43
44
45
46
47
48
49
50
51
52
53
54
55
56
57
58
59
60
61
62
63
64
Running test: test_matadd_32_threads
threads is 32
finished at cycle 2672
93550000.00ns INFO     cocotb.regression                  test_matadd_32_threads passed
93550000.00ns INFO     cocotb.regression                  running test_matmul_2x2 (4/10)
using json initial data
PROGRAM IS
20702
12303
37121
37378
37632
37892
38152
26114
22370
18183
38912
39168
23138
15017
15011
31392
23442
15287
15284
31664
23723
14476
14737
8338
6156
14672
32920
61440
DATA IS
1
2
3
4
1
2
3
4
Running test: test_matmul_2x2
threads is 4
finished at cycle 966
[1, 2, 3, 4, 1, 2, 3, 4]
printing
[1, 2, 3, 4]
[1, 2, 3, 4]
0 0
0 1
1 0
1 1
printing2
[7, 10, 15, 22]
118150000.00ns INFO     cocotb.regression                  test_matmul_2x2 passed
118150000.00ns INFO     cocotb.regression                  running test_matmul_4x4 (5/10)
using json initial data
PROGRAM IS
0
20702
12303
37121
37380
37632
37904
38176
26114
22370
18183
38912
39168
23138
15017
15011
31392
23442
15287
15284
31664
23723
14476
14737
8338
6157
14672
32920
61440
DATA IS
1
2
3
4
5
6
2
3
1
2
1
4
5
6
1
3
1
2
3
4
1
6
7
2
1
2
3
4
5
6
7
3
Running test: test_matmul_4x4
threads is 16
finished at cycle 3730
[1, 2, 3, 4, 5, 6, 2, 3, 1, 2, 1, 4, 5, 6, 1, 3, 1, 2, 3, 4, 1, 6, 7, 2, 1, 2, 3, 4, 5, 6, 7, 3]
printing
[1, 2, 3, 4, 5, 6, 2, 3, 1, 2, 1, 4, 5, 6, 1, 3]
[1, 2, 3, 4, 1, 6, 7, 2, 1, 2, 3, 4, 5, 6, 7, 3]
0 0
0 1
0 2
0 3
1 0
1 1
1 2
1 3
2 0
2 1
2 2
2 3
3 0
3 1
3 2
3 3
printing2
[26, 44, 54, 32, 28, 68, 84, 49, 24, 40, 48, 24, 27, 66, 81, 45]
211850000.00ns INFO     cocotb.regression                  test_matmul_4x4 passed
211850000.00ns INFO     cocotb.regression                  running test_load (6/10)
using json initial data
PROGRAM IS
22238
13935
37380
38656
30816
14472
37124
13921
32872
0
0
39937
14204
8306
6148
61440
DATA IS
1
2
3
4
Running test: test_load
threads is 4
finished at cycle 1156
241200000.01ns INFO     cocotb.regression                  test_load passed
241200000.01ns INFO     cocotb.regression                  running test_alldmem_basic (7/10)
using 0 initial data
PROGRAM IS
39167
37121
20702
12303
20481
38152
37889
38664
38404
37376
39424
32768
12293
15012
8358
6155
12836
8231
6154
61440
DATA IS
0
Running test: test_alldmem
threads is 8
finished at cycle 7664
433250000.01ns INFO     cocotb.regression                  test_alldmem_basic passed
433250000.01ns INFO     cocotb.regression                  running test_alldmem_unrolled (8/10)
using 0 initial data
PROGRAM IS
37376
37128
20702
12303
20481
37121
12833
32768
12289
32768
12289
32768
12289
32768
12289
32768
12289
32768
12289
32768
12289
32768
12289
37176
12289
37124
8225
6149
61440
DATA IS
0
Running test: test_alldmem_unrolled
threads is 8
finished at cycle 5914
581550000.01ns INFO     cocotb.regression                  test_alldmem_unrolled passed
581550000.01ns INFO     cocotb.regression                  running test_alldmem_64 (9/10)
using 0 initial data
PROGRAM IS
39167
37124
20702
12303
20481
37376
39424
37121
32768
12289
32768
12289
32768
12289
32768
12289
37121
15009
37121
8353
6151
37121
12833
37184
12289
37121
8225
6150
61440
DATA IS
0
Running test: test_alldmem_64
threads is 64
finished at cycle 8368
791200000.01ns INFO     cocotb.regression                  test_alldmem_64 passed
791200000.01ns INFO     cocotb.regression                  running test_alldmem_hash (10/10)
using 0 initial data
PROGRAM IS
39167
37121
20702
12303
20481
38152
37889
38664
38404
37376
39424
37120
13057
21299
37128
13105
21299
13104
32771
12293
15012
8358
6155
12836
8231
6154
61440
DATA IS
0
Running test: test_alldmem_hash
threads is 8
finished at cycle 11808
1086850000.01ns INFO     cocotb.regression                  test_alldmem_hash passed
1086850000.01ns INFO     cocotb.regression                  *************************************************************************************************
                                                            ** TEST                                     STATUS  SIM TIME (ns)  REAL TIME (s)  RATIO (ns/s) **
                                                            *************************************************************************************************
                                                            ** test.test_negatives.test_negatives        PASS     5700000.00           0.06   93563500.62  **
                                                            ** test.test_matadd.test_matadd_8_threads    PASS    20600000.00           0.52   39728576.84  **
                                                            ** test.test_matadd.test_matadd_32_threads   PASS    67250000.00           0.77   87404917.50  **
                                                            ** test.test_matmul.test_matmul_2x2          PASS    24600000.00           0.29   85159245.34  **
                                                            ** test.test_matmul.test_matmul_4x4          PASS    93700000.00           0.88   106136533.91  **
                                                            ** test.test_load.test_load                  PASS    29350000.00           0.30   98298793.06  **
                                                            ** test.test_alldmem.test_alldmem_basic      PASS   192050000.00           2.83   67869339.87  **
                                                            ** test.test_alldmem.test_alldmem_unrolled   PASS   148300000.00           2.53   58584740.76  **
                                                            ** test.test_alldmem.test_alldmem_64         PASS   209650000.00           2.94   71341591.05  **
                                                            ** test.test_alldmem.test_alldmem_hash       PASS   295650000.00           3.59   82448363.48  **
                                                            *************************************************************************************************
                                                            ** TESTS=10 PASS=10 FAIL=0 SKIP=0                   1086850000.01          15.69   69283545.11  **
                                                            *************************************************************************************************
                                                            
- :0: Verilog $finish
make[2]: Leaving directory '/mnt/newhome/tiny-gpu'
make[1]: Leaving directory '/mnt/newhome/tiny-gpu'
